{
  "results": [
    {
      "popularity": 601.364,
      "vote_count": 4014,
      "video": false,
      "poster_path": "/udDclJoHjfjb8Ekgsd4FDteOkCU.jpg",
      "id": 475557,
      "adult": false,
      "backdrop_path": "/n6bUvigpRFqSwmPp1m2YADdbRBc.jpg",
      "original_language": "en",
      "original_title": "Joker",
      "genre_ids": [
        80,
        18,
        53
      ],
      "title": "Joker",
      "vote_average": 8.6,
      "overview": "During the 1980s, a failed stand-up comedian is driven insane and turns to a life of crime and chaos in Gotham City while becoming an infamous psychopathic crime figure.",
      "release_date": "2019-10-04"
    },
    {
      "popularity": 268.577,
      "vote_count": 366,
      "video": false,
      "poster_path": "/tBuabjEqxzoUBHfbyNbd8ulgy5j.jpg",
      "id": 420809,
      "adult": false,
      "backdrop_path": "/skvI4rYFrKXS73BJxWGH54Omlvv.jpg",
      "original_language": "en",
      "original_title": "Maleficent: Mistress of Evil",
      "genre_ids": [
        12,
        14,
        10751
      ],
      "title": "Maleficent: Mistress of Evil",
      "vote_average": 7.2,
      "overview": "Maleficent and her goddaughter Aurora begin to question the complex family ties that bind them as they are pulled in different directions by impending nuptials, unexpected allies, and dark new forces at play.",
      "release_date": "2019-10-18"
    },
    {
      "popularity": 223.592,
      "vote_count": 53,
      "video": false,
      "poster_path": "/vqzNJRH4YyquRiWxCCOH0aXggHI.jpg",
      "id": 290859,
      "adult": false,
      "backdrop_path": "/a6cDxdwaQIFjSkXf7uskg78ZyTq.jpg",
      "original_language": "en",
      "original_title": "Terminator: Dark Fate",
      "genre_ids": [
        28,
        878
      ],
      "title": "Terminator: Dark Fate",
      "vote_average": 6.7,
      "overview": "More than two decades have passed since Sarah Connor prevented Judgment Day, changed the future, and re-wrote the fate of the human race. Dani Ramos is living a simple life in Mexico City with her brother and father when a highly advanced and deadly new Terminator – a Rev-9 – travels back through time to hunt and kill her. Dani's survival depends on her joining forces with two warriors: Grace, an enhanced super-soldier from the future, and a battle-hardened Sarah Connor. As the Rev-9 ruthlessly destroys everything and everyone in its path on the hunt for Dani, the three are led to a T-800 from Sarah’s past that may be their last best hope.",
      "release_date": "2019-11-01"
    },
    {
      "popularity": 98.271,
      "vote_count": 1093,
      "video": false,
      "poster_path": "/ePXuKdXZuJx8hHMNr2yM4jY2L7Z.jpg",
      "id": 559969,
      "adult": false,
      "backdrop_path": "/uLXK1LQM28XovWHPao3ViTeggXA.jpg",
      "original_language": "en",
      "original_title": "El Camino: A Breaking Bad Movie",
      "genre_ids": [
        80,
        18,
        53
      ],
      "title": "El Camino: A Breaking Bad Movie",
      "vote_average": 7.2,
      "overview": "In the wake of his dramatic escape from captivity, Jesse Pinkman must come to terms with his past in order to forge some kind of future.",
      "release_date": "2019-10-11"
    },
    {
      "popularity": 100.117,
      "vote_count": 15,
      "video": false,
      "poster_path": "/mAWBfTDAmfpvQGMVFuzuVl49N1P.jpg",
      "id": 449924,
      "adult": false,
      "backdrop_path": "/ekP6EVxL81lZ4ivcqPsoZ72rY0h.jpg",
      "original_language": "cn",
      "original_title": "葉問4",
      "genre_ids": [
        28,
        18,
        36
      ],
      "title": "Ip Man 4: The Finale",
      "vote_average": 5.6,
      "overview": "Ip Man 4 is an upcoming Hong Kong biographical martial arts film directed by Wilson Yip and produced by Raymond Wong. It is the fourth in the Ip Man film series based on the life of the Wing Chun grandmaster of the same name and features Donnie Yen reprising the role. The film began production in April 2018 and ended in July the same year.",
      "release_date": "2019-10-18"
    },
    {
      "popularity": 99.18,
      "vote_count": 114,
      "video": false,
      "poster_path": "/pIcV8XXIIvJCbtPoxF9qHMKdRr2.jpg",
      "id": 338967,
      "adult": false,
      "backdrop_path": "/jCCdt0e8Xe9ttvevD4S3TSMNdH.jpg",
      "original_language": "en",
      "original_title": "Zombieland: Double Tap",
      "genre_ids": [
        28,
        35,
        27
      ],
      "title": "Zombieland: Double Tap",
      "vote_average": 7.4,
      "overview": "The group will face a new zombie threat as a new breed of zombie has developed. This new super-zombie type is faster, bigger, and stronger than the previous strain of zombies and harder to kill. These super-zombies have started grouping up into a horde going from city to city leaving a path of destruction behind them.",
      "release_date": "2019-10-18"
    },
    {
      "popularity": 97.742,
      "vote_count": 381,
      "video": false,
      "poster_path": "/d0FWbzrmm99BTfUqf1Lbjl2zu3S.jpg",
      "id": 417384,
      "adult": false,
      "backdrop_path": "/qBI3Spq93lNxGzecdGpbwV5lOvU.jpg",
      "original_language": "en",
      "original_title": "Scary Stories to Tell in the Dark",
      "genre_ids": [
        27,
        53
      ],
      "title": "Scary Stories to Tell in the Dark",
      "vote_average": 6.4,
      "overview": "The shadow of the Bellows family has loomed large in the small town of Mill Valley for generations. It's in a mansion that young Sarah Bellows turns her tortured life and horrible secrets into a series of scary stories. These terrifying tales soon have a way of becoming all too real for a group of unsuspecting teens who stumble upon Sarah's spooky home.",
      "release_date": "2019-08-09"
    },
    {
      "popularity": 95.888,
      "vote_count": 388,
      "video": false,
      "poster_path": "/uTALxjQU8e1lhmNjP9nnJ3t2pRU.jpg",
      "id": 453405,
      "adult": false,
      "backdrop_path": "/c3F4P2oauA7IQmy4hM0OmRt2W7d.jpg",
      "original_language": "en",
      "original_title": "Gemini Man",
      "genre_ids": [
        28,
        53
      ],
      "title": "Gemini Man",
      "vote_average": 5.9,
      "overview": "Henry Brogen, an aging assassin tries to get out of the business but finds himself in the ultimate battle: fighting his own clone who is 25 years younger than him and at the peak of his abilities.",
      "release_date": "2019-10-11"
    },
    {
      "popularity": 74.201,
      "vote_count": 49,
      "video": false,
      "poster_path": "/4E2lyUGLEr3yH4q6kJxPkQUhX7n.jpg",
      "id": 568012,
      "adult": false,
      "backdrop_path": "/iGnCzXEx0cFlUbpyAMeHwHWhPhx.jpg",
      "original_language": "ja",
      "original_title": "ワンピーススタンピード",
      "genre_ids": [
        28,
        12,
        16
      ],
      "title": "One Piece: Stampede",
      "vote_average": 7.9,
      "overview": "One Piece: Stampede is a stand-alone film that celebrates the anime's 20th Anniversary and takes place outside the canon of the \"One Piece\" TV series. Monkey D. Luffy and his Straw Hat pirate crew are invited to a massive Pirate Festival that brings many of the most iconic characters from throughout the franchise to participate in competition with the Straw Hats to find Roger's treasure. It also pits the Straw Hats against a new enemy named Bullet, a former member of Roger's crew.",
      "release_date": "2019-10-24"
    },
    {
      "popularity": 69.008,
      "vote_count": 3027,
      "video": false,
      "poster_path": "/ziEuG1essDuWuC5lpWUaw1uXY2O.jpg",
      "id": 458156,
      "adult": false,
      "backdrop_path": "/stemLQMLDrlpfIlZ5OjllOPT8QX.jpg",
      "original_language": "en",
      "original_title": "John Wick: Chapter 3 - Parabellum",
      "genre_ids": [
        28,
        80,
        53
      ],
      "title": "John Wick: Chapter 3 - Parabellum",
      "vote_average": 7.1,
      "overview": "Super-assassin John Wick returns with a $14 million price tag on his head and an army of bounty-hunting killers on his trail. After killing a member of the shadowy international assassin’s guild, the High Table, John Wick is excommunicado, but the world’s most ruthless hit men and women await his every turn.",
      "release_date": "2019-05-17"
    },
    {
      "popularity": 48.55,
      "vote_count": 330,
      "video": false,
      "poster_path": "/zBhv8rsLOfpFW2M5b6wW78Uoojs.jpg",
      "id": 540901,
      "adult": false,
      "backdrop_path": "/jTab4cf4X1dJJVS4F8UOGuesvPd.jpg",
      "original_language": "en",
      "original_title": "Hustlers",
      "genre_ids": [
        35,
        80,
        18
      ],
      "title": "Hustlers",
      "vote_average": 6.1,
      "overview": "A crew of savvy former strip club employees band together to turn the tables on their Wall Street clients.",
      "release_date": "2019-09-13"
    },
    {
      "popularity": 57.341,
      "vote_count": 5,
      "video": false,
      "poster_path": "/fjmMu9fpqMMF17mCyLhNfkagKB0.jpg",
      "id": 578189,
      "adult": false,
      "backdrop_path": "/zBAoNL50oFRCAJvEEQEKD8M48pV.jpg",
      "original_language": "en",
      "original_title": "Black and Blue",
      "genre_ids": [
        28,
        80,
        18
      ],
      "title": "Black and Blue",
      "vote_average": 4.6,
      "overview": "Exposure follows a rookie Detroit African-American female cop who stumbles upon corrupt officers who are murdering a drug dealer, an incident captured by her body cam. They pursue her through the night in an attempt to destroy the footage, but to make matters worse, they've tipped off a criminal gang that she's responsible for the dealer's death.",
      "release_date": "2019-10-25"
    },
    {
      "popularity": 63.297,
      "vote_count": 830,
      "video": false,
      "poster_path": "/1rjaRIAqFPQNnMtqSMLtg0VEABi.jpg",
      "id": 515195,
      "adult": false,
      "backdrop_path": "/t5Kp02Jzixl0KfpwthHp9ZUex9t.jpg",
      "original_language": "en",
      "original_title": "Yesterday",
      "genre_ids": [
        35,
        14,
        10402,
        10749
      ],
      "title": "Yesterday",
      "vote_average": 6.7,
      "overview": "Jack Malik is a struggling singer-songwriter in an English seaside town whose dreams of fame are rapidly fading, despite the fierce devotion and support of his childhood best friend, Ellie. After a freak bus accident during a mysterious global blackout, Jack wakes up to discover that he's the only person on Earth who can remember The Beatles.",
      "release_date": "2019-06-28"
    },
    {
      "popularity": 48.013,
      "vote_count": 21,
      "video": false,
      "poster_path": "/vS6TCG4HiUSCyX30f5wDGQDt1k3.jpg",
      "id": 428045,
      "adult": false,
      "backdrop_path": "/5yiCqzmxYv36GGdc05egCMHedbX.jpg",
      "original_language": "ru",
      "original_title": "Тайна Печати Дракона",
      "genre_ids": [
        12,
        14
      ],
      "title": "The Mystery of the Dragon’s Seal",
      "vote_average": 4.6,
      "overview": "The Russian Czar Peter the Great commissions Jonathan Green, an English traveller, to map the Far East territories of the Russian Empire. Green sets off on yet another long journey, full of unbelievable adventures, which eventually leads him to China. On his way, the famous cartographer makes breath-taking discoveries, meets mysterious creatures, Chinese princesses, deadly masters of oriental martial arts, and even Lun Van, the King of Dragons, himself. What could be more perilous than looking into the eyes of Viy? Only meeting him again… What will prevail this time — the unflinching scepticism of the scientist or ancient black magic, which has already gained influence over the Far East Lands?",
      "release_date": "2019-08-16"
    },
    {
      "popularity": 41.442,
      "vote_count": 132,
      "video": false,
      "poster_path": "/hwNMJgbiUUvPCxsnADjbV9ysM5j.jpg",
      "id": 517909,
      "adult": false,
      "backdrop_path": "/67bO5GCJclI4EUiGenF5oPc7koI.jpg",
      "original_language": "en",
      "original_title": "The Laundromat",
      "genre_ids": [
        35,
        80,
        18
      ],
      "title": "The Laundromat",
      "vote_average": 6.5,
      "overview": "When her idyllic vacation takes an unthinkable turn, Ellen Martin begins investigating a fake insurance policy, only to find herself down a rabbit hole of questionable dealings that can be linked to a Panama City law firm and its vested interest in helping the world's wealthiest citizens amass larger fortunes.",
      "release_date": "2019-09-27"
    },
    {
      "popularity": 52.427,
      "vote_count": 61,
      "video": false,
      "poster_path": "/uaXNjRkDdjfxfVuKHo25wkA6CiA.jpg",
      "id": 481084,
      "adult": false,
      "backdrop_path": "/xS89uFXPKKwyWJgM7ljAmuAtDMh.jpg",
      "original_language": "en",
      "original_title": "The Addams Family",
      "genre_ids": [
        16,
        35,
        14,
        27,
        10751
      ],
      "title": "The Addams Family",
      "vote_average": 6.1,
      "overview": "The Addams family's lives begin to unravel when they face-off against a treacherous, greedy crafty reality-TV host while also preparing for their extended family to arrive for a major celebration.",
      "release_date": "2019-10-11"
    },
    {
      "popularity": 47.67,
      "vote_count": 2432,
      "video": false,
      "poster_path": "/8j58iEBw9pOXFD2L0nt0ZXeHviB.jpg",
      "id": 466272,
      "adult": false,
      "backdrop_path": "/kKTPv9LKKs5L3oO1y5FNObxAPWI.jpg",
      "original_language": "en",
      "original_title": "Once Upon a Time... in Hollywood",
      "genre_ids": [
        35,
        18
      ],
      "title": "Once Upon a Time... in Hollywood",
      "vote_average": 7.6,
      "overview": "A faded television actor and his stunt double strive to achieve fame and success in the film industry during the final years of Hollywood's Golden Age in 1969 Los Angeles.",
      "release_date": "2019-07-26"
    },
    {
      "popularity": 28.351,
      "vote_count": 642,
      "video": false,
      "poster_path": "/m2ttWZ8rMRwIMT7zA48Jo6mTkDS.jpg",
      "id": 459992,
      "adult": false,
      "backdrop_path": "/88r25ghJzVYKq0vaOApqEOZsQlD.jpg",
      "original_language": "en",
      "original_title": "Long Shot",
      "genre_ids": [
        35,
        10749
      ],
      "title": "Long Shot",
      "vote_average": 6.7,
      "overview": "Fred Flarsky is a gifted and free-spirited journalist who has a knack for getting into trouble. Charlotte Field is one of the most influential women in the world -- a smart, sophisticated and accomplished politician. When Fred unexpectedly runs into Charlotte, he soon realizes that she was his former baby sitter and childhood crush. When Charlotte decides to make a run for the presidency, she impulsively hires Fred as her speechwriter -- much to the dismay of her trusted advisers.",
      "release_date": "2019-05-03"
    },
    {
      "popularity": 68.365,
      "vote_count": 180,
      "video": false,
      "poster_path": "/ebe8hJRCwdflNQbUjRrfmqtUiNi.jpg",
      "id": 454640,
      "adult": false,
      "backdrop_path": "/k7sE3loFwuU2mqf7FbZBeE3rjBa.jpg",
      "original_language": "en",
      "original_title": "The Angry Birds Movie 2",
      "genre_ids": [
        28,
        12,
        16,
        35,
        10751
      ],
      "title": "The Angry Birds Movie 2",
      "vote_average": 6.4,
      "overview": "Red, Chuck, Bomb and the rest of their feathered friends are surprised when a green pig suggests that they put aside their differences and unite to fight a common threat. Aggressive birds from an island covered in ice are planning to use an elaborate weapon to destroy the fowl and swine.",
      "release_date": "2019-08-14"
    },
    {
      "popularity": 38.99,
      "vote_count": 217,
      "video": false,
      "poster_path": "/klkFYDZOetegK8floj6IjvbzzQ2.jpg",
      "id": 513045,
      "adult": false,
      "backdrop_path": "/xgfn98c2UzvFWP6MXDzytearmQ3.jpg",
      "original_language": "en",
      "original_title": "Stuber",
      "genre_ids": [
        28,
        35,
        80,
        53
      ],
      "title": "Stuber",
      "vote_average": 6.4,
      "overview": "After crashing his car, a cop who's recovering from eye surgery recruits an Uber driver to help him catch a heroin dealer. The mismatched pair soon find themselves in for a wild day of stakeouts and shootouts as they encounter the city's seedy side.",
      "release_date": "2019-07-12"
    }
  ],
  "page": 1,
  "total_results": 1370,
  "dates": {
    "maximum": "2019-10-31",
    "minimum": "2019-09-13"
  },
  "total_pages": 69
}
